VERILOG/Miller Modificado/Miller Modif Deco/mill_modif_demod_tb.vcd
$date
	Sun Oct  8 17:48:53 2017
$end
$version
	Icarus Verilog
$end
$timescale
	1us
$end
$scope module mill_modif_demod_tb $end
$var wire 1 ! out_data $end
$var reg 1 " clk $end
$var reg 1 # in_PoR $end
$var reg 1 $ in_data $end
$scope module u1 $end
$var wire 2 % aux [1:0] $end
$var wire 1 & clk $end
$var wire 1 ' in_PoR $end
$var wire 1 ( in_clk $end
$var wire 1 ) in_data $end
$var reg 2 * count_end [1:0] $end
$var reg 1 + flag_count_end $end
$var reg 1 , flag_pause $end
$var reg 1 - in_pause $end
$var reg 1 . out_data $end
$var reg 1 / out_pause $end
$var reg 5 0 reg_count [4:0] $end
$var reg 1 1 reg_etu $end
$var reg 1 2 reg_flag $end
$var reg 1 3 reg_mitad_etu $end
$upscope $end
$upscope $end
$enddefinitions $end
#0
$dumpvars
03
02
01
b0 0
0/
0.
0-
0,
0+
b0 *
0)
0(
0'
0&
b0 %
0$
0#
0"
0!
$end
#1
1"
1&
#2
0"
0&
#3
1"
1&
#4
0"
0&
#5
1"
1&
#6
0"
0&
#7
1"
1&
#8
0"
0&
#9
1"
1&
#10
0"
0&
#11
1"
1&
#12
0"
0&
#13
1"
1&
#14
0"
0&
#15
1"
1&
#16
0"
0&
#17
1"
1&
#18
0"
0&
1$
1)
b10 %
#19
1(
1"
1&
#20
0(
0"
0&
#21
1(
1"
1&
#22
0(
0"
0&
#23
1(
1"
1&
#24
0(
0"
0&
#25
1(
1"
1&
#26
0(
0"
0&
0$
0)
b0 %
#27
1"
1&
#28
0"
0&
#29
1"
1&
#30
0"
0&
#31
1"
1&
#32
0"
0&
#33
1"
1&
#34
0"
0&
1$
1)
b10 %
#35
1(
1"
1&
#36
0(
0"
0&
#37
1(
1"
1&
#38
0(
0"
0&
#39
1(
1"
1&
#40
0(
0"
0&
#41
1(
1"
1&
#42
0(
0"
0&
0$
0)
b0 %
#43
1"
1&
#44
0"
0&
#45
1"
1&
#46
0"
0&
#47
1"
1&
#48
0"
0&
#49
1"
1&
#50
0"
0&
#51
1"
1&
#52
0"
0&
#53
1"
1&
#54
0"
0&
#55
1"
1&
#56
0"
0&
#57
1"
1&
#58
0"
0&
#59
1"
1&
#60
0"
0&
#61
1"
1&
#62
0"
0&
#63
1"
1&
#64
0"
0&
#65
1"
1&
#66
0"
0&
#67
1"
1&
#68
0"
0&
#69
1"
1&
#70
0"
0&
#71
1"
1&
#72
0"
0&
#73
1"
1&
#74
0"
0&
#75
1"
1&
#76
0"
0&
#77
1"
1&
#78
0"
0&
1$
1)
b10 %
1#
1'
#79
1(
1"
1&
#80
b1 0
0(
0"
0&
#81
1(
1"
1&
#82
b10 0
0(
0"
0&
#83
1(
1"
1&
#84
b11 0
0(
0"
0&
#85
1(
1"
1&
#86
b100 0
0(
0"
0&
#87
1(
1"
1&
#88
b101 0
0(
0"
0&
#89
1(
1"
1&
#90
b110 0
0(
0"
0&
#91
1(
1"
1&
#92
b111 0
0(
0"
0&
#93
1(
1"
1&
#94
b1000 0
0(
0"
0&
#95
1(
1"
1&
#96
b1001 0
0(
0"
0&
#97
1(
1"
1&
#98
b1010 0
0(
0"
0&
#99
1(
1"
1&
#100
b1011 0
0(
0"
0&
#101
1(
1"
1&
#102
b1100 0
0(
0"
0&
#103
1(
1"
1&
#104
b1101 0
0(
0"
0&
#105
1(
1"
1&
#106
b1110 0
0(
0"
0&
#107
1(
1"
1&
#108
b1111 0
0(
0"
0&
#109
1(
1"
1&
#110
13
1-
0(
0"
0&
0$
0)
b0 %
#111
1"
1&
#112
0"
0&
#113
1"
1&
#114
0"
0&
#115
1"
1&
#116
0"
0&
#117
1"
1&
#118
0"
0&
#119
1"
1&
#120
0"
0&
#121
1"
1&
#122
0"
0&
#123
1"
1&
#124
0"
0&
#125
1"
1&
#126
0"
0&
#127
1"
1&
#128
0"
0&
#129
1"
1&
#130
0"
0&
#131
1"
1&
#132
0"
0&
#133
1"
1&
#134
0"
0&
#135
1"
1&
#136
0"
0&
1$
1)
b10 %
#137
1(
1"
1&
#138
1+
b0 0
0(
0"
0&
#139
1(
1"
1&
#140
b1 *
0(
0"
0&
#141
1(
1"
1&
#142
1.
1!
03
1,
b0 *
0+
0(
0"
0&
#143
1(
1"
1&
#144
0-
0/
b10 %
0,
b1 0
0(
0"
0&
#145
1(
1"
1&
#146
b10 0
0(
0"
0&
#147
1(
1"
1&
#148
b11 0
0(
0"
0&
#149
1(
1"
1&
#150
b100 0
0(
0"
0&
#151
1(
1"
1&
#152
b101 0
0(
0"
0&
#153
1(
1"
1&
#154
b110 0
0(
0"
0&
#155
1(
1"
1&
#156
b111 0
0(
0"
0&
#157
1(
1"
1&
#158
b1000 0
0(
0"
0&
#159
1(
1"
1&
#160
b1001 0
0(
0"
0&
#161
1(
1"
1&
#162
b1010 0
0(
0"
0&
#163
1(
1"
1&
#164
b1011 0
0(
0"
0&
#165
1(
1"
1&
#166
b1100 0
0(
0"
0&
#167
1(
1"
1&
#168
b1101 0
0(
0"
0&
#169
1(
1"
1&
#170
b1110 0
0(
0"
0&
#171
1(
1"
1&
#172
b1111 0
0(
0"
0&
#173
1(
1"
1&
#174
13
b10000 0
0(
0"
0&
#175
1(
1"
1&
#176
b10001 0
0(
0"
0&
#177
1(
1"
1&
#178
b10010 0
0(
0"
0&
#179
1(
1"
1&
#180
b10011 0
0(
0"
0&
#181
1(
1"
1&
#182
b10100 0
0(
0"
0&
#183
1(
1"
1&
#184
b10101 0
0(
0"
0&
#185
1(
1"
1&
#186
b10110 0
0(
0"
0&
#187
1(
1"
1&
#188
b10111 0
0(
0"
0&
#189
1(
1"
1&
#190
b11000 0
0(
0"
0&
#191
1(
1"
1&
#192
b11001 0
0(
0"
0&
#193
1(
1"
1&
#194
b11010 0
0(
0"
0&
#195
1(
1"
1&
#196
b11011 0
0(
0"
0&
#197
1(
1"
1&
#198
b11100 0
0(
0"
0&
#199
1(
1"
1&
#200
b11101 0
0(
0"
0&
#201
1(
1"
1&
#202
b11110 0
0(
0"
0&
#203
1(
1"
1&
#204
b11111 0
0(
0"
0&
#205
1(
1"
1&
#206
b0 0
0.
0!
03
01
1-
0(
0"
0&
0$
0)
b0 %
#207
1"
1&
#208
0"
0&
#209
1"
1&
#210
0"
0&
#211
1"
1&
#212
0"
0&
#213
1"
1&
#214
0"
0&
#215
1"
1&
#216
0"
0&
#217
1"
1&
#218
0"
0&
#219
1"
1&
#220
0"
0&
#221
1"
1&
#222
0"
0&
#223
1"
1&
#224
0"
0&
#225
1"
1&
#226
0"
0&
#227
1"
1&
#228
0"
0&
#229
1"
1&
#230
0"
0&
#231
1"
1&
#232
0"
0&
1$
1)
b10 %
#233
1(
1"
1&
#234
1+
b0 0
0(
0"
0&
#235
1(
1"
1&
#236
b1 *
0(
0"
0&
#237
1(
1"
1&
#238
12
1,
b0 *
0+
0(
0"
0&
#239
1(
1"
1&
#240
0-
0/
b10 %
0,
b1 0
0(
0"
0&
#241
1(
1"
1&
#242
b10 0
0(
0"
0&
#243
1(
1"
1&
#244
b11 0
0(
0"
0&
#245
1(
1"
1&
#246
b100 0
0(
0"
0&
#247
1(
1"
1&
#248
b101 0
0(
0"
0&
#249
1(
1"
1&
#250
b110 0
0(
0"
0&
#251
1(
1"
1&
#252
b111 0
0(
0"
0&
#253
1(
1"
1&
#254
b1000 0
0(
0"
0&
#255
1(
1"
1&
#256
b1001 0
0(
0"
0&
#257
1(
1"
1&
#258
b1010 0
0(
0"
0&
#259
1(
1"
1&
#260
b1011 0
0(
0"
0&
#261
1(
1"
1&
#262
b1100 0
0(
0"
0&
#263
1(
1"
1&
#264
b1101 0
0(
0"
0&
#265
1(
1"
1&
#266
b1110 0
0(
0"
0&
#267
1(
1"
1&
#268
b1111 0
0(
0"
0&
#269
1(
1"
1&
#270
02
03
b0 0
0(
0"
0&
#271
1(
1"
1&
#272
b1 0
0(
0"
0&
#273
1(
1"
1&
#274
b10 0
0(
0"
0&
#275
1(
1"
1&
#276
b11 0
0(
0"
0&
#277
1(
1"
1&
#278
b100 0
0(
0"
0&
#279
1(
1"
1&
#280
b101 0
0(
0"
0&
#281
1(
1"
1&
#282
b110 0
0(
0"
0&
#283
1(
1"
1&
#284
b111 0
0(
0"
0&
#285
1(
1"
1&
#286
b1000 0
0(
0"
0&
#287
1(
1"
1&
#288
b1001 0
0(
0"
0&
#289
1(
1"
1&
#290
b1010 0
0(
0"
0&
#291
1(
1"
1&
#292
b1011 0
0(
0"
0&
#293
1(
1"
1&
#294
b1100 0
0(
0"
0&
#295
1(
1"
1&
#296
b1101 0
0(
0"
0&
#297
1(
1"
1&
#298
b1110 0
0(
0"
0&
#299
1(
1"
1&
#300
b1111 0
0(
0"
0&
#301
1(
1"
1&
#302
13
1-
0(
0"
0&
0$
0)
b0 %
#303
1"
1&
#304
0"
0&
#305
1"
1&
#306
0"
0&
#307
1"
1&
#308
0"
0&
#309
1"
1&
#310
0"
0&
#311
1"
1&
#312
0"
0&
#313
1"
1&
#314
0"
0&
#315
1"
1&
#316
0"
0&
#317
1"
1&
#318
0"
0&
#319
1"
1&
#320
0"
0&
#321
1"
1&
#322
0"
0&
#323
1"
1&
#324
0"
0&
#325
1"
1&
#326
0"
0&
#327
1"
1&
#328
0"
0&
1$
1)
b10 %
#329
1(
1"
1&
#330
1+
b0 0
0(
0"
0&
#331
1(
1"
1&
#332
b1 *
0(
0"
0&
#333
1(
1"
1&
#334
1.
1!
03
1,
b0 *
0+
0(
0"
0&
#335
1(
1"
1&
#336
0-
0/
b10 %
0,
b1 0
0(
0"
0&
#337
1(
1"
1&
#338
b10 0
0(
0"
0&
#339
1(
1"
1&
#340
b11 0
0(
0"
0&
#341
1(
1"
1&
#342
b100 0
0(
0"
0&
#343
1(
1"
1&
#344
b101 0
0(
0"
0&
#345
1(
1"
1&
#346
b110 0
0(
0"
0&
#347
1(
1"
1&
#348
b111 0
0(
0"
0&
#349
1(
1"
1&
#350
b1000 0
0(
0"
0&
#351
1(
1"
1&
#352
b1001 0
0(
0"
0&
#353
1(
1"
1&
#354
b1010 0
0(
0"
0&
#355
1(
1"
1&
#356
b1011 0
0(
0"
0&
#357
1(
1"
1&
#358
b1100 0
0(
0"
0&
#359
1(
1"
1&
#360
b1101 0
0(
0"
0&
#361
1(
1"
1&
#362
b1110 0
0(
0"
0&
#363
1(
1"
1&
#364
b1111 0
0(
0"
0&
#365
1(
1"
1&
#366
13
1-
0(
0"
0&
0$
0)
b0 %
#367
1"
1&
#368
0"
0&
#369
1"
1&
#370
0"
0&
#371
1"
1&
#372
0"
0&
#373
1"
1&
#374
0"
0&
#375
1"
1&
#376
0"
0&
#377
1"
1&
#378
0"
0&
#379
1"
1&
#380
0"
0&
#381
1"
1&
#382
0"
0&
#383
1"
1&
#384
0"
0&
#385
1"
1&
#386
0"
0&
#387
1"
1&
#388
0"
0&
#389
1"
1&
#390
0"
0&
#391
1"
1&
#392
0"
0&
1$
1)
b10 %
#393
1(
1"
1&
#394
1+
b0 0
0(
0"
0&
#395
1(
1"
1&
#396
b1 *
0(
0"
0&
#397
1(
1"
1&
#398
03
1,
b0 *
0+
0(
0"
0&
#399
1(
1"
1&
#400
0-
0/
b10 %
0,
b1 0
0(
0"
0&
#401
1(
1"
1&
#402
b10 0
0(
0"
0&
#403
1(
1"
1&
#404
b11 0
0(
0"
0&
#405
1(
1"
1&
#406
b100 0
0(
0"
0&
#407
1(
1"
1&
#408
b101 0
0(
0"
0&
#409
1(
1"
1&
#410
b110 0
0(
0"
0&
#411
1(
1"
1&
#412
b111 0
0(
0"
0&
#413
1(
1"
1&
#414
b1000 0
0(
0"
0&
#415
1(
1"
1&
#416
b1001 0
0(
0"
0&
#417
1(
1"
1&
#418
b1010 0
0(
0"
0&
#419
1(
1"
1&
#420
b1011 0
0(
0"
0&
#421
1(
1"
1&
#422
b1100 0
0(
0"
0&
#423
1(
1"
1&
#424
b1101 0
0(
0"
0&
#425
1(
1"
1&
#426
b1110 0
0(
0"
0&
#427
1(
1"
1&
#428
b1111 0
0(
0"
0&
#429
1(
1"
1&
#430
13
b10000 0
0(
0"
0&
#431
1(
1"
1&
#432
b10001 0
0(
0"
0&
#433
1(
1"
1&
#434
b10010 0
0(
0"
0&
#435
1(
1"
1&
#436
b10011 0
0(
0"
0&
#437
1(
1"
1&
#438
b10100 0
0(
0"
0&
#439
1(
1"
1&
#440
b10101 0
0(
0"
0&
#441
1(
1"
1&
#442
b10110 0
0(
0"
0&
#443
1(
1"
1&
#444
b10111 0
0(
0"
0&
#445
1(
1"
1&
#446
b11000 0
0(
0"
0&
#447
1(
1"
1&
#448
b11001 0
0(
0"
0&
#449
1(
1"
1&
#450
b11010 0
0(
0"
0&
#451
1(
1"
1&
#452
b11011 0
0(
0"
0&
#453
1(
1"
1&
#454
b11100 0
0(
0"
0&
#455
1(
1"
1&
#456
b11101 0
0(
0"
0&
#457
1(
1"
1&
#458
b11110 0
0(
0"
0&
#459
1(
1"
1&
#460
b11111 0
0(
0"
0&
#461
1(
1"
1&
#462
0.
0!
03
01
b0 0
0(
0"
0&
#463
1(
1"
1&
#464
b1 0
0(
0"
0&
#465
1(
1"
1&
#466
b10 0
0(
0"
0&
#467
1(
1"
1&
#468
b11 0
0(
0"
0&
#469
1(
1"
1&
#470
b100 0
0(
0"
0&
#471
1(
1"
1&
#472
b101 0
0(
0"
0&
#473
1(
1"
1&
#474
b110 0
0(
0"
0&
#475
1(
1"
1&
#476
b111 0
0(
0"
0&
#477
1(
1"
1&
#478
b1000 0
0(
0"
0&
#479
1(
1"
1&
#480
b1001 0
0(
0"
0&
#481
1(
1"
1&
#482
b1010 0
0(
0"
0&
#483
1(
1"
1&
#484
b1011 0
0(
0"
0&
#485
1(
1"
1&
#486
b1100 0
0(
0"
0&
#487
1(
1"
1&
#488
b1101 0
0(
0"
0&
#489
1(
1"
1&
#490
b1110 0
0(
0"
0&
#491
1(
1"
1&
#492
b1111 0
0(
0"
0&
#493
1(
1"
1&
#494
13
b10000 0
0(
0"
0&
#495
1(
1"
1&
#496
b10001 0
0(
0"
0&
#497
1(
1"
1&
#498
b10010 0
0(
0"
0&
#499
1(
1"
1&
#500
b10011 0
0(
0"
0&
#501
1(
1"
1&
#502
b10100 0
0(
0"
0&
#503
1(
1"
1&
#504
b10101 0
0(
0"
0&
#505
1(
1"
1&
#506
b10110 0
0(
0"
0&
#507
1(
1"
1&
#508
b10111 0
0(
0"
0&
#509
1(
1"
1&
#510
b11000 0
0(
0"
0&
#511
1(
1"
1&
#512
b11001 0
0(
0"
0&
#513
1(
1"
1&
#514
b11010 0
0(
0"
0&
#515
1(
1"
1&
#516
b11011 0
0(
0"
0&
#517
1(
1"
1&
#518
b11100 0
0(
0"
0&
#519
1(
1"
1&
#520
b11101 0
0(
0"
0&
#521
1(
1"
1&
#522
b11110 0
0(
0"
0&
#523
1(
1"
1&
#524
b11111 0
0(
0"
0&
#525
1(
1"
1&
#526
b0 0
03
01
1-
0(
0"
0&
0$
0)
b0 %
#527
1"
1&
#528
0"
0&
#529
1"
1&
#530
0"
0&
#531
1"
1&
#532
0"
0&
#533
1"
1&
#534
0"
0&
#535
1"
1&
#536
0"
0&
#537
1"
1&
#538
0"
0&
#539
1"
1&
#540
0"
0&
#541
1"
1&
#542
0"
0&
#543
1"
1&
#544
0"
0&
#545
1"
1&
#546
0"
0&
#547
1"
1&
#548
0"
0&
#549
1"
1&
#550
0"
0&
#551
1"
1&
#552
0"
0&
1$
1)
b10 %
#553
1(
1"
1&
#554
1+
b0 0
0(
0"
0&
#555
1(
1"
1&
#556
b1 *
0(
0"
0&
#557
1(
1"
1&
#558
12
1,
b0 *
0+
0(
0"
0&
#559
1(
1"
1&
#560
0-
0/
b10 %
0,
b1 0
0(
0"
0&
#561
1(
1"
1&
#562
b10 0
0(
0"
0&
#563
1(
1"
1&
#564
b11 0
0(
0"
0&
#565
1(
1"
1&
#566
b100 0
0(
0"
0&
#567
1(
1"
1&
#568
b101 0
0(
0"
0&
#569
1(
1"
1&
#570
b110 0
0(
0"
0&
#571
1(
1"
1&
#572
b111 0
0(
0"
0&
#573
1(
1"
1&
#574
b1000 0
0(
0"
0&
#575
1(
1"
1&
#576
b1001 0
0(
0"
0&
#577
1(
1"
1&
#578
b1010 0
0(
0"
0&
#579
1(
1"
1&
#580
b1011 0
0(
0"
0&
#581
1(
1"
1&
#582
b1100 0
0(
0"
0&
#583
1(
1"
1&
#584
b1101 0
0(
0"
0&
#585
1(
1"
1&
#586
b1110 0
0(
0"
0&
#587
1(
1"
1&
#588
b1111 0
0(
0"
0&
#589
1(
1"
1&
#590
02
03
b0 0
0(
0"
0&
#591
1(
1"
1&
#592
b1 0
0(
0"
0&
#593
1(
1"
1&
#594
b10 0
0(
0"
0&
#595
1(
1"
1&
#596
b11 0
0(
0"
0&
#597
1(
1"
1&
#598
b100 0
0(
0"
0&
#599
1(
1"
1&
#600
b101 0
0(
0"
0&
#601
1(
1"
1&
#602
b110 0
0(
0"
0&
#603
1(
1"
1&
#604
b111 0
0(
0"
0&
#605
1(
1"
1&
#606
b1000 0
0(
0"
0&
#607
1(
1"
1&
#608
b1001 0
0(
0"
0&
#609
1(
1"
1&
#610
b1010 0
0(
0"
0&
#611
1(
1"
1&
#612
b1011 0
0(
0"
0&
#613
1(
1"
1&
#614
b1100 0
0(
0"
0&
#615
1(
1"
1&
#616
b1101 0
0(
0"
0&
#617
1(
1"
1&
#618
b1110 0
0(
0"
0&
#619
1(
1"
1&
#620
b1111 0
0(
0"
0&
#621
1(
1"
1&
#622
13
1-
0(
0"
0&
0$
0)
b0 %
#623
1"
1&
#624
0"
0&
#625
1"
1&
#626
0"
0&
#627
1"
1&
#628
0"
0&
#629
1"
1&
#630
0"
0&
#631
1"
1&
#632
0"
0&
#633
1"
1&
#634
0"
0&
#635
1"
1&
#636
0"
0&
#637
1"
1&
#638
0"
0&
#639
1"
1&
#640
0"
0&
#641
1"
1&
#642
0"
0&
#643
1"
1&
#644
0"
0&
#645
1"
1&
#646
0"
0&
#647
1"
1&
#648
0"
0&
1$
1)
b10 %
#649
1(
1"
1&
#650
1+
b0 0
0(
0"
0&
#651
1(
1"
1&
#652
b1 *
0(
0"
0&
#653
1(
1"
1&
#654
1.
1!
03
1,
b0 *
0+
0(
0"
0&
#655
1(
1"
1&
#656
0-
0/
b10 %
0,
b1 0
0(
0"
0&
#657
1(
1"
1&
#658
b10 0
0(
0"
0&
#659
1(
1"
1&
#660
b11 0
0(
0"
0&
#661
1(
1"
1&
#662
b100 0
0(
0"
0&
#663
1(
1"
1&
#664
b101 0
0(
0"
0&
